fsim/dump.vcd
$date
	Thu Feb 23 10:16:44 2017
$end
$version
	Icarus Verilog
$end
$timescale
	1ps
$end
$scope module top $end
$scope module sgmii $end
$var reg 9 ! \data_out_pipe[0] [8:0] $end
$upscope $end
$upscope $end
$scope module top $end
$var wire 1 " mii_clk $end
$var wire 1 # mii_rx_col $end
$var wire 1 $ mii_rx_crs $end
$var wire 1 % mii_rx_dv $end
$var wire 1 & mii_rx_er $end
$var wire 4 ' mii_rxd [3:0] $end
$var wire 1 ( mii_tx_en $end
$var wire 1 ) mii_tx_er $end
$var wire 4 * mii_txd [3:0] $end
$var wire 1 + rmii_crs_dv $end
$var wire 1 , rmii_refclk $end
$var wire 1 - rmii_rx_er $end
$var wire 2 . rmii_rxd [1:0] $end
$var wire 1 / rmii_tx_en $end
$var wire 2 0 rmii_txd [1:0] $end
$var wire 1 1 rst_l $end
$var wire 1 2 sgmii_rx $end
$var wire 1 3 sgmii_tx $end
$scope module rmii_conv $end
$var wire 1 # mii_col $end
$var wire 1 $ mii_crs $end
$var wire 1 % mii_rx_dv $end
$var wire 1 & mii_rx_er $end
$var wire 1 " mii_rxclk $end
$var wire 4 4 mii_rxd [3:0] $end
$var wire 1 ( mii_tx_en $end
$var wire 1 ) mii_tx_er $end
$var wire 1 " mii_txclk $end
$var wire 4 5 mii_txd [3:0] $end
$var wire 1 + rmii_crs_dv $end
$var wire 1 , rmii_refclk $end
$var wire 1 - rmii_rx_er $end
$var wire 2 6 rmii_rxd [1:0] $end
$var wire 1 / rmii_tx_en $end
$var wire 2 7 rmii_txd [1:0] $end
$var wire 1 1 rst_l $end
$var reg 1 8 mii_crs_r1 $end
$var reg 1 9 mii_crs_r2 $end
$var reg 4 : mii_data_rx_r1 [3:0] $end
$var reg 4 ; mii_data_rx_r2 [3:0] $end
$var reg 4 < mii_data_tx_r1 [3:0] $end
$var reg 4 = mii_data_tx_r2 [3:0] $end
$var reg 4 > mii_data_tx_r3 [3:0] $end
$var reg 1 ? mii_rx_dv_r1 $end
$var reg 1 @ mii_rx_dv_r2 $end
$var reg 1 A mii_rx_er_r1 $end
$var reg 1 B mii_rx_er_r2 $end
$var reg 1 C mii_tx_en_r1 $end
$var reg 1 D mii_tx_en_r2 $end
$var reg 1 E mii_tx_en_r3 $end
$var reg 1 F nib $end
$var reg 1 G rmii_crs_dv_r1 $end
$var reg 2 H rmii_data_rx_r1 [1:0] $end
$var reg 1 I rmii_rx_er_r1 $end
$upscope $end
$scope module sgmii $end
$var wire 9 J DataFromEnc [8:0] $end
$var wire 1 K Decode_disp $end
$var wire 1 L Encode_disp $end
$var wire 10 M EncodedDataIn [9:0] $end
$var wire 10 N EncodedDataOut [9:0] $end
$var wire 1 O code_err $end
$var wire 1 P disp_err $end
$var wire 1 # mii_rx_col $end
$var wire 1 $ mii_rx_crs $end
$var wire 1 % mii_rx_dv $end
$var wire 1 & mii_rx_er $end
$var wire 1 " mii_rxclk $end
$var wire 4 Q mii_rxd [3:0] $end
$var wire 1 ( mii_tx_en $end
$var wire 1 ) mii_tx_er $end
$var wire 1 " mii_txclk $end
$var wire 4 R mii_txd [3:0] $end
$var wire 1 1 rst_l $end
$var wire 1 2 rx $end
$var wire 1 S sof $end
$var wire 1 3 tx $end
$var reg 9 T DataFromEnc_r [8:0] $end
$var reg 9 U DataToEnc_r [8:0] $end
$var reg 9 V DataToEnc_r1 [8:0] $end
$var reg 1 W Decode_disp_r $end
$var reg 1 X Encode_disp_r $end
$var reg 10 Y EncodedDataOut_r [9:0] $end
$var reg 1 Z code_err_r $end
$var reg 1 [ disp_err_r $end
$var reg 1 \ enc_clk $end
$var reg 1 ] match_0 $end
$var reg 1 ^ match_1 $end
$var reg 1 _ match_2 $end
$var reg 4 ` mii_out [3:0] $end
$var reg 1 a nib $end
$scope module encode_8b10b $end
$var wire 1 b aeqb $end
$var wire 1 c ai $end
$var wire 1 d alt7 $end
$var wire 1 e ao $end
$var wire 1 f bi $end
$var wire 1 g bo $end
$var wire 1 h ceqd $end
$var wire 1 i ci $end
$var wire 1 j co $end
$var wire 1 k compls4 $end
$var wire 1 l compls6 $end
$var wire 9 m datain [8:0] $end
$var wire 10 n dataout [9:0] $end
$var wire 1 o di $end
$var wire 1 p disp6 $end
$var wire 1 q dispin $end
$var wire 1 L dispout $end
$var wire 1 r do $end
$var wire 1 s ei $end
$var wire 1 t eo $end
$var wire 1 u fi $end
$var wire 1 v fo $end
$var wire 1 w gi $end
$var wire 1 x go $end
$var wire 1 y hi $end
$var wire 1 z ho $end
$var wire 1 { illegalk $end
$var wire 1 | io $end
$var wire 1 } jo $end
$var wire 1 ~ ki $end
$var wire 1 !" l04 $end
$var wire 1 "" l13 $end
$var wire 1 #" l22 $end
$var wire 1 $" l31 $end
$var wire 1 %" l40 $end
$var wire 1 &" nd1s4 $end
$var wire 1 '" nd1s6 $end
$var wire 1 (" ndos4 $end
$var wire 1 )" ndos6 $end
$var wire 1 *" pd1s4 $end
$var wire 1 +" pd1s6 $end
$var wire 1 ," pdos4 $end
$var wire 1 -" pdos6 $end
$upscope $end
$scope module decode_8b10b $end
$var wire 1 ." abei $end
$var wire 1 /" aeqb $end
$var wire 1 0" ai $end
$var wire 1 1" alt7 $end
$var wire 1 2" anbnenin $end
$var wire 1 3" ao $end
$var wire 1 4" bi $end
$var wire 1 5" bo $end
$var wire 1 6" cdei $end
$var wire 1 7" ceqd $end
$var wire 1 8" ci $end
$var wire 1 9" cndnenin $end
$var wire 1 :" co $end
$var wire 1 O code_err $end
$var wire 1 ;" compa $end
$var wire 1 <" compb $end
$var wire 1 =" compc $end
$var wire 1 >" compd $end
$var wire 1 ?" compe $end
$var wire 10 @" datain [9:0] $end
$var wire 9 A" dataout [8:0] $end
$var wire 1 B" di $end
$var wire 1 C" disp4n $end
$var wire 1 D" disp4p $end
$var wire 1 E" disp6a $end
$var wire 1 F" disp6a0 $end
$var wire 1 G" disp6a2 $end
$var wire 1 H" disp6b $end
$var wire 1 I" disp6n $end
$var wire 1 J" disp6p $end
$var wire 1 P disp_err $end
$var wire 1 K" dispin $end
$var wire 1 K dispout $end
$var wire 1 L" do $end
$var wire 1 M" ei $end
$var wire 1 N" eo $end
$var wire 1 O" feqg $end
$var wire 1 P" fghj22 $end
$var wire 1 Q" fghjp13 $end
$var wire 1 R" fghjp31 $end
$var wire 1 S" fi $end
$var wire 1 T" fo $end
$var wire 1 U" gi $end
$var wire 1 V" go $end
$var wire 1 W" heqj $end
$var wire 1 X" hi $end
$var wire 1 Y" ho $end
$var wire 1 Z" ii $end
$var wire 1 [" ji $end
$var wire 1 \" k28 $end
$var wire 1 ]" k28p $end
$var wire 1 ^" ko $end
$var wire 1 _" p04 $end
$var wire 1 `" p13 $end
$var wire 1 a" p13dei $end
$var wire 1 b" p13en $end
$var wire 1 c" p13in $end
$var wire 1 d" p22 $end
$var wire 1 e" p22aceeqi $end
$var wire 1 f" p22ancneeqi $end
$var wire 1 g" p22bceeqi $end
$var wire 1 h" p22bncneeqi $end
$var wire 1 i" p22ei $end
$var wire 1 j" p22enin $end
$var wire 1 k" p31 $end
$var wire 1 l" p31dnenin $end
$var wire 1 m" p31e $end
$var wire 1 n" p31i $end
$var wire 1 o" p40 $end
$upscope $end
$upscope $end
$upscope $end
$enddefinitions $end
#0
$dumpvars
0o"
0n"
0m"
0l"
0k"
0j"
0i"
0h"
0g"
0f"
0e"
0d"
0c"
0b"
0a"
0`"
1_"
1^"
1]"
1\"
0["
0Z"
0Y"
0X"
1W"
1V"
0U"
0T"
0S"
0R"
0Q"
0P"
1O"
1N"
0M"
1L"
0K"
0J"
0I"
0H"
0G"
0F"
0E"
0D"
0C"
0B"
b101011111 A"
b0 @"
1?"
1>"
1="
1<"
1;"
1:"
19"
08"
17"
06"
15"
04"
13"
12"
01"
00"
1/"
0."
x-"
x,"
x+"
x*"
x)"
x("
x'"
x&"
x%"
x$"
x#"
x""
x!"
x~
x}
x|
x{
xz
xy
xx
xw
xv
xu
xt
xs
xr
0q
xp
xo
bx n
bx m
xl
xk
xj
xi
xh
xg
xf
xe
xd
xc
xb
0a
b0 `
0_
0^
0]
0\
0[
0Z
b0 Y
0X
0W
bx V
b0 U
b0 T
0S
bx R
b0 Q
1P
1O
bx N
b0 M
xL
0K
b101011111 J
xI
bx H
xG
xF
xE
xD
xC
xB
xA
x@
x?
bx >
bx =
bx <
bx ;
bx :
x9
x8
b0 7
bx 6
bx 5
b0 4
z3
z2
01
b0 0
0/
bx .
x-
0,
x+
bx *
z)
x(
b0 '
0&
0%
0$
0#
z"
b0 !
$end
#10000
0"
#20000
0C
b0 <
0B
0A
0@
0?
09
08
b0 ;
b0 :
0F
0I
0-
0G
0+
b0 H
b0 .
b0 6
1,
#30000
0E
0(
0D
b0 >
b0 *
b0 5
b0 R
b0 =
0,
1"
#40000
1,
#50000
0,
0"
#60000
1,
#70000
0,
1"
#80000
1,
#90000
0,
0"
11
#100000
b0 <
1F
1,
#110000
0k
0L
b10111001 N
b10111001 n
0|
1p
1l
1)"
1+"
0t
1j
0""
1g
0#"
0'"
1!"
0-"
1x
0}
1b
0$"
1h
0d
0{
1*"
0r
0%"
0v
1("
0&"
0,"
0c
0e
0f
0i
0o
0s
0u
0w
0y
0z
0~
b0 !
b0 V
b0 m
b0 U
1\
0,
1"
b1 0
b1 7
1/
#120000
0F
1C
b100 <
1,
#130000
0,
0"
#140000
b101 <
1F
1,
#150000
1a
b1010000 U
0\
1E
1(
1D
b101 >
b101 *
b101 5
b101 R
b101 =
0,
1"
#160000
0F
b101 <
1,
#170000
0,
0"
#180000
b101 <
1F
1,
#190000
0O
0p
0P
1h"
1J"
1i"
1C"
1Q"
0l
1d"
0:"
0^"
1#"
0'"
0="
1?"
05"
0V"
0g
0)"
0+"
0-"
0L
1}
0/"
07"
1H"
1;"
0<"
1>"
0\"
0O"
0b
0h
0!"
1t
0*"
03"
0_"
0L"
0N"
b0 J
b0 A"
02"
09"
0]"
b1010010101 N
b1010010101 n
0("
10"
1B"
1M"
1Z"
1U"
1c
1e
1i
1s
1w
b101011111 !
1[
1Z
b101011111 T
b10111001 Y
b10111001 M
b10111001 @"
b1010101 V
b1010101 m
0a
b1010101 U
1\
0,
1"
#200000
0F
b101 <
1,
#210000
0,
0"
#220000
b101 <
1F
1,
#230000
1a
b101 `
b101 '
b101 4
b101 Q
b1010101 U
0\
0,
1"
#240000
0F
b1 H
b1 .
b1 6
b101 ;
b101 :
b101 <
1,
#250000
0,
0"
#260000
b101 <
1F
1,
#270000
0P
13"
1N"
0;"
0>"
0?"
0K
0H"
1V"
0I"
1P"
0Y"
0F"
0c"
0`"
0J"
0h"
0W"
0C"
0Q"
1:"
0L"
b1010101 J
b1010101 A"
0i"
18"
0B"
0Z"
1["
b0 !
b1010010101 Y
b1010010101 M
b1010010101 @"
0[
0Z
b0 T
0a
b1111 `
b1111 '
b1111 4
b1111 Q
b1010101 U
1\
0,
1"
#280000
0F
b11 H
b11 .
b11 6
b1111 ;
b1111 :
b101 <
1,
#290000
0,
0"
#300000
b101 <
1F
1,
#310000
1a
b0 `
b0 '
b0 4
b0 Q
b1010101 U
0\
0,
1"
#320000
0F
b0 H
b0 .
b0 6
b0 ;
b0 :
b101 <
1,
#330000
0,
0"
#340000
b101 <
1F
1,
#350000
1_
1^
b1010101 !
b1010101 T
0a
b1010101 U
1\
0,
1"
#360000
0F
b101 <
1,
#370000
0,
0"
#380000
b101 <
1F
1,
#390000
1a
b101 `
b101 '
b101 4
b101 Q
b1010101 U
0\
0,
1"
#400000
0F
b1 H
b1 .
b1 6
b101 ;
b101 :
b101 <
1,
#410000
0,
0"
#420000
b101 <
1F
1,
#430000
b1010101 !
0a
b1010101 U
1\
0,
1"
#440000
0F
b101 <
1,
#450000
0,
0"
#460000
b101 <
1F
1,
#470000
1a
b1010101 U
0\
0,
1"
#480000
0F
b101 <
1,
#490000
0,
0"
#500000
b101 <
1F
1,
#510000
b1010101 !
0a
b1010101 U
1\
0,
1"
#520000
0F
b101 <
1,
#530000
0,
0"
#540000
b101 <
1F
1,
#550000
1a
b1010101 U
0\
0,
1"
#560000
0F
b101 <
1,
#570000
0,
0"
#580000
b101 <
1F
1,
#590000
b1010101 !
0a
b1010101 U
1\
0,
1"
#600000
0F
b101 <
1,
#610000
0,
0"
#620000
b101 <
1F
1,
#630000
1a
b1010101 U
0\
0,
1"
#640000
0F
b101 <
1,
#650000
0,
0"
#660000
b101 <
1F
1,
#670000
b1010101 !
0a
b1010101 U
1\
0,
1"
#680000
0F
b101 <
1,
#690000
0,
0"
#700000
b101 <
1F
1,
#710000
1a
b1010101 U
0\
0,
1"
#720000
b11 0
b11 7
0F
b101 <
1,
#730000
0,
0"
#740000
b1101 <
1F
1,
#750000
0}
b110010101 N
b110010101 n
1y
1z
b1010101 !
b11010101 V
b11010101 m
0a
b11010101 U
1\
b1101 >
b1101 *
b1101 5
b1101 R
b1101 =
0,
1"
#760000
0F
b1111 <
1,
#770000
0,
0"
#780000
b10 0
b10 7
b1111 <
1F
1,
#790000
1a
b11111101 U
0\
b1111 >
b1111 *
b1111 5
b1111 R
b1111 =
0,
1"
#800000
b0 0
b0 7
0F
b1011 <
1,
#810000
0,
0"
#820000
b10 <
1F
1,
#830000
1L
1p
1l
1Y"
b11010101 J
b11010101 A"
1)"
1+"
0P
0|
0#"
1%"
0C"
0Q"
0g
1b
0$"
1h
0t
1}
0r
1v
0x
b1001111010 N
b1001111010 n
1X"
0["
1f
1o
0s
1u
0w
0y
0z
b1010101 !
b110010101 Y
b110010101 M
b110010101 @"
b101111 V
b101111 m
0a
b101111 U
1\
b10 >
b10 *
b10 5
b10 R
b10 =
0,
1"
#840000
b11 0
b11 7
0F
b0 <
1,
#850000
0,
0"
#860000
b10 0
b10 7
b1100 <
1F
1,
#870000
1a
b11000010 U
0\
b1100 >
b1100 *
b1100 5
b1100 R
b1100 =
0,
1"
#880000
b11 0
b11 7
0F
b1011 <
1,
#890000
0,
0"
#900000
b1 0
b1 7
b1110 <
1F
1,
#910000
0O
1k
0<"
0Y"
1|
0N"
0>"
1;"
1="
1?"
0)"
0+"
1K
0P
1#"
1f"
1H"
0E"
0n"
0m"
1T"
0V"
1r
0%"
0k"
1J"
0h"
0C"
0Q"
0D"
0R"
1,"
0}
0L
0l
13"
15"
1:"
1L"
b101111 J
b101111 A"
1i"
1&"
1x
b1000101100 N
b1000101100 n
1p
00"
14"
08"
1B"
1Z"
1S"
0U"
0X"
1["
0c
0e
0f
1w
1y
1z
0_
0^
1]
b11010101 !
1X
1q
b1001111010 Y
b1001111010 M
b1001111010 @"
b11010101 T
b11101100 V
b11101100 m
0a
b11101100 U
1\
b1110 >
b1110 *
b1110 5
b1110 R
b1110 =
0,
1"
#920000
b0 0
b0 7
0F
b111 <
1,
#930000
0,
0"
#940000
b10 0
b10 7
b1 <
1F
1,
#950000
1a
b1101 `
b1101 '
b1101 4
b1101 Q
b11110 U
0\
b1 >
b1 *
b1 5
b1 R
b1 =
0,
1"
#960000
b0 0
b0 7
0F
b1101 ;
b1101 :
b1000 <
1,
#970000
0,
0"
#980000
b1 0
b1 7
b10 <
1F
b11 H
b11 .
b11 6
1,
#990000
0O
1H"
03"
0;"
0="
0?"
1Y"
0|
1l
0K
1L"
1t
1)"
1+"
0<"
0>"
0P
1V"
1""
0I"
0G"
0n"
1d"
0P"
0#"
0b"
0k"
0J"
1C"
1Q"
0g
1}
0k
1/"
0`"
17"
0i"
0f"
1O"
0b
0!"
0j
1E"
1L
05"
1:"
0N"
b11101100 J
b11101100 A"
0r
0&"
0x
0,"
b1001101110 N
b1001101110 n
1p
04"
18"
0M"
0S"
1c
1e
0i
0o
0w
0y
0z
0]
b101111 !
1W
1K"
b101111 T
0X
0q
b1000101100 Y
b1000101100 M
b1000101100 @"
b100001 V
b100001 m
0a
b101 `
b101 '
b101 4
b101 Q
b100001 U
1\
b10 >
b10 *
b10 5
b10 R
b10 =
0,
1"
#1000000
b0 0
b0 7
0F
b1 H
b1 .
b1 6
b101 ;
b101 :
b100 <
1,
#1010000
0,
0"
#1020000
b1 <
1F
1,
#1030000
1a
b10 `
b10 '
b10 4
b10 Q
b10010 U
0\
b1 >
b1 *
b1 5
b1 R
b1 =
0,
1"
#1040000
b10 0
b10 7
0F
b10 H
b10 .
b10 6
b10 ;
b10 :
b0 <
1,
#1050000
0,
0"
#1060000
b11 0
b11 7
b1000 <
1F
b0 H
b0 .
b0 6
1,
#1070000
13"
0:"
0L"
1;"
1<"
1="
1>"
0Y"
1K
1J"
1n"
1H"
1k"
0V"
1P"
0P
1k
0d"
0C"
0Q"
0/"
0O"
1*"
0}
1L
0l
05"
b100001 J
b100001 A"
1E"
1("
0v
b1011010001 N
b1011010001 n
0p
14"
1S"
0u
1y
1z
b11101100 !
1X
1q
b1001101110 Y
b1001101110 M
b1001101110 @"
0W
0K"
b11101100 T
b10000001 V
b10000001 m
0a
b1111 `
b1111 '
b1111 4
b1111 Q
b10000001 U
1\
b1000 >
b1000 *
b1000 5
b1000 R
b1000 =
0,
1"
#1080000
b0 0
b0 7
0F
b11 H
b11 .
b11 6
b1111 ;
b1111 :
b1110 <
1,
#1090000
0,
0"
#1100000
b1 0
b1 7
b11 <
1F
1,
#1110000
1a
b1110 `
b1110 '
b1110 4
b1110 Q
b111000 U
0\
b11 >
b11 *
b11 5
b11 R
b11 =
0,
1"
#1120000
b0 0
b0 7
0F
b10 H
b10 .
b10 6
b1110 ;
b1110 :
b100 <
1,
#1130000
0,
0"
#1140000
b1 0
b1 7
b1 <
1F
b11 H
b11 .
b11 6
1,
#1150000
0O
1?"
0l
1Y"
0H"
0'"
0;"
0<"
0="
0>"
0-"
0k
0L
1I"
0P
1#"
0""
1p
1c"
0J"
0P"
0d"
1`"
0E"
0T"
0)"
0+"
0k"
1D"
1R"
1O"
1g
1b
1x
13"
05"
0:"
0L"
0N"
b10000001 J
b10000001 A"
0m"
0n"
b10010011 N
b10010011 n
0G"
10"
04"
08"
0B"
1M"
0Z"
1U"
1f
1s
0y
0z
b100001 !
1W
1K"
b100001 T
b1011010001 Y
b1011010001 M
b1011010001 @"
b10011 V
b10011 m
0a
b1100 `
b1100 '
b1100 4
b1100 Q
b10011 U
1\
b1 >
b1 *
b1 5
b1 R
b1 =
0,
1"
#1160000
b0 0
b0 7
0F
b0 H
b0 .
b0 6
b1100 ;
b1100 :
b100 <
1,
#1170000
0,
0"
#1180000
b11 0
b11 7
b1 <
1F
b11 H
b11 .
b11 6
1,
#1190000
1a
b10 `
b10 '
b10 4
b10 Q
b10001 U
0\
0,
1"
#1200000
b1 0
b1 7
0F
b10 H
b10 .
b10 6
b10 ;
b10 :
b1100 <
1,
#1210000
0,
0"
#1220000
b11 0
b11 7
b111 <
1F
b0 H
b0 .
b0 6
1,
#1230000
1N"
0O
1H"
0?"
1E"
0I"
0P
0c"
1|
1d"
0`"
1C"
1Q"
0#"
1""
0Y"
0D"
0R"
0P"
0k
1/"
0O"
1W"
0K
0g
0b
b11110001 N
b11110001 n
0*"
0L
15"
b10011 J
b10011 A"
1v
0("
1&"
0p
14"
0S"
0["
0f
1u
1w
b10000001 !
0X
0q
b10010011 Y
b10010011 M
b10010011 @"
b10000001 T
b1110001 V
b1110001 m
0a
b1 `
b1 '
b1 4
b1 Q
b1110001 U
1\
b111 >
b111 *
b111 5
b111 R
b111 =
0,
1"
#1240000
b0 0
b0 7
0F
b1 H
b1 .
b1 6
b1 ;
b1 :
b1101 <
1,
#1250000
0,
0"
#1260000
b10 0
b10 7
b11 <
1F
b0 H
b0 .
b0 6
1,
#1270000
1a
b1000 `
b1000 '
b1000 4
b1000 Q
b110111 U
0\
b11 >
b11 *
b11 5
b11 R
b11 =
0,
1"
#1280000
b11 0
b11 7
0F
b1000 ;
b1000 :
b1000 <
1,
#1290000
0,
0"
#1300000
b10 0
b10 7
b1110 <
1F
b10 H
b10 .
b10 6
1,
#1310000
0H"
1N"
0?"
0O
0t
0k
1F"
1|
0d"
1`"
1V"
1T"
1P"
0C"
0Q"
1#"
0""
0p
0l
0P
13"
0L"
0h"
0;"
0<"
0>"
0)"
0+"
1L
0}
1v
0/"
0J"
1O"
1g
1b
0d
0E"
05"
b1110001 J
b1110001 A"
0i"
0."
1,"
b111100011 N
b111100011 n
04"
1Z"
1S"
1f
0s
1y
1z
b10011 !
0W
0K"
b10011 T
b11110001 Y
b11110001 M
b11110001 @"
b11100011 V
b11100011 m
0a
b1 `
b1 '
b1 4
b1 Q
b11100011 U
1\
b1110 >
b1110 *
b1110 5
b1110 R
b1110 =
0,
1"
#1320000
b1 0
b1 7
0F
b1 H
b1 .
b1 6
b1 ;
b1 :
b1011 <
1,
#1330000
0,
0"
#1340000
b0 0
b0 7
b110 <
1F
b0 H
b0 .
b0 6
1,
#1350000
1a
b1101110 U
0\
b110 >
b110 *
b110 5
b110 R
b110 =
0,
1"
#1360000
b10 0
b10 7
0F
b1 H
b1 .
b1 6
b1 <
1,
#1370000
0,
0"
#1380000
b11 0
b11 7
b1000 <
1F
b0 H
b0 .
b0 6
1,
#1390000
0O
0P
1K
0F"
1d"
0`"
13"
0:"
0L"
1D"
1R"
0;"
0<"
0="
0>"
0?"
0P"
1Y"
0I"
1/"
0W"
0b
0h
1j
1*"
0,"
0L
15"
0b"
0N"
b11100011 J
b11100011 A"
b100100110 N
b100100110 n
0v
1("
0&"
0x
1p
14"
0M"
1X"
0c
0e
1i
0u
0w
b1110001 !
1X
1q
b111100011 Y
b111100011 M
b111100011 @"
b1110001 T
b10000110 V
b10000110 m
0a
b11 `
b11 '
b11 4
b11 Q
b10000110 U
1\
b1000 >
b1000 *
b1000 5
b1000 R
b1000 =
0,
1"
#1400000
0F
b11 H
b11 .
b11 6
b11 ;
b11 :
b1110 <
1,
#1410000
0,
0"
#1420000
b10 0
b10 7
b1111 <
1F
b0 H
b0 .
b0 6
1,
#1430000
1a
b111 `
b111 '
b111 4
b111 Q
b11111000 U
0\
b1111 >
b1111 *
b1111 5
b1111 R
b1111 =
0,
1"
#1440000
b11 0
b11 7
0F
b11 H
b11 .
b11 6
b111 ;
b111 :
b1011 <
1,
#1450000
0,
0"
#1460000
b10 0
b10 7
b1110 <
1F
b1 H
b1 .
b1 6
1,
#1470000
0|
1l
0P
1)"
1+"
1H"
0V"
0T"
0K
0g
0#"
1C"
1Q"
1%"
1k
0/"
07"
0D"
0R"
0'"
1b
0$"
1h
0*"
1,"
1E"
0L
03"
1:"
b10000110 J
b10000110 A"
b1000111010 N
b1000111010 n
0r
1v
0("
1&"
1x
1p
00"
18"
0S"
0U"
1c
1e
1o
1u
1w
b11100011 !
1W
1K"
b11100011 T
0X
0q
b100100110 Y
b100100110 M
b100100110 @"
b11101111 V
b11101111 m
0a
b1 `
b1 '
b1 4
b1 Q
b11101111 U
1\
b1110 >
b1110 *
b1110 5
b1110 R
b1110 =
0,
1"
#1480000
b0 0
b0 7
0F
b1 ;
b1 :
b1011 <
1,
#1490000
0,
0"
#1500000
b10 0
b10 7
b10 <
1F
b0 H
b0 .
b0 6
1,
#1510000
1a
b1110 `
b1110 '
b1110 4
b1110 Q
b101110 U
0\
b10 >
b10 *
b10 5
b10 R
b10 =
0,
1"
#1520000
b0 0
b0 7
0F
b10 H
b10 .
b10 6
b1110 ;
b1110 :
b1000 <
1,
#1530000
0,
0"
#1540000
b11 0
b11 7
b10 <
1F
b11 H
b11 .
b11 6
1,
#1550000
0O
15"
0<"
0>"
0|
1p
1l
13"
0K
1t
1)"
1+"
1;"
1="
1?"
1V"
1""
0P
0#"
0n"
0m"
1J"
0P"
1g
0k
1}
1L
0k"
1i"
1f"
1T"
0b
0j
1:"
1L"
0N"
b11101111 J
b11101111 A"
0E"
0%"
0&"
0x
0,"
b1001101101 N
b1001101101 n
08"
1B"
1M"
0X"
1["
0c
0e
0i
0o
0w
0y
0z
b10000110 !
b1000111010 Y
b1000111010 M
b1000111010 @"
0W
0K"
b10000110 T
b100010 V
b100010 m
0a
b11 `
b11 '
b11 4
b11 Q
b100010 U
1\
0,
1"
#1560000
0F
b11 ;
b11 :
b1100 <
1,
#1570000
0,
0"
#1580000
b0 0
b0 7
b1111 <
1F
b0 H
b0 .
b0 6
1,
#1590000
1a
b1000 `
b1000 '
b1000 4
b1000 Q
b11110010 U
0\
b1111 >
b1111 *
b1111 5
b1111 R
b1111 =
0,
1"
#1600000
b11 0
b11 7
0F
b1000 ;
b1000 :
b11 <
1,
#1610000
0,
0"
#1620000
b0 0
b0 7
b1100 <
1F
b10 H
b10 .
b10 6
1,
#1630000
0P
0Y"
1K
1;"
1="
0?"
0L"
1<"
1>"
1H"
0V"
0g
1)"
1+"
0I"
1E"
1n"
0d"
1P"
0t
0F"
0b"
1k"
1J"
0C"
0Q"
1%"
0$"
0`"
17"
0i"
0f"
0O"
1b
1j
0""
0}
0L
0l
03"
15"
0:"
0N"
b100010 J
b100010 A"
0r
0v
1x
b110000101 N
b110000101 n
0p
10"
04"
18"
0M"
1S"
1c
1e
1i
1o
0u
1w
1y
1z
b11101111 !
b11101111 T
1X
1q
b1001101101 Y
b1001101101 M
b1001101101 @"
b11001111 V
b11001111 m
0a
b110 `
b110 '
b110 4
b110 Q
b11001111 U
1\
b1100 >
b1100 *
b1100 5
b1100 R
b1100 =
0,
1"
#1640000
b11 0
b11 7
0F
b110 ;
b110 :
b11 <
1,
#1650000
0,
0"
#1660000
b1100 <
1F
b1 H
b1 .
b1 6
1,
#1670000
1a
b1110 `
b1110 '
b1110 4
b1110 Q
b11001100 U
0\
0,
1"
#1680000
0F
b10 H
b10 .
b10 6
b1110 ;
b1110 :
b1111 <
1,
#1690000
0,
0"
#1700000
b10 0
b10 7
b1111 <
1F
b11 H
b11 .
b11 6
1,
#1710000
0O
13"
15"
1:"
1e"
1I"
0;"
1<"
0="
1>"
1j"
0K
0P
1d"
1V"
1#"
0'"
0|
0l"
1E"
0J"
1r
0%"
0)"
0+"
0-"
0k
0H"
0k"
07"
0D"
0R"
0T"
0C"
0Q"
1Y"
1t
1,"
1L
0l
1L"
b11001111 J
b11001111 A"
0n"
b111011100 N
b111011100 n
1&"
1v
0p
0B"
0Z"
0S"
1U"
1X"
0["
0G"
0c
0e
0f
1s
1u
b100010 !
0X
0q
b110000101 Y
b110000101 M
b110000101 @"
1W
1K"
b100010 T
b11111100 V
b11111100 m
0a
b1111 `
b1111 '
b1111 4
b1111 Q
b11111100 U
1\
b1111 >
b1111 *
b1111 5
b1111 R
b1111 =
0,
1"
#1720000
b11 0
b11 7
0F
b1111 ;
b1111 :
b1011 <
1,
#1730000
0,
0"
#1740000
b0 0
b0 7
b1110 <
1F
1,
#1750000
1a
b10 `
b10 '
b10 4
b10 Q
b11101111 U
0\
b1110 >
b1110 *
b1110 5
b1110 R
b1110 =
0,
1"
#1760000
b1 0
b1 7
0F
b10 H
b10 .
b10 6
b10 ;
b10 :
b11 <
1,
#1770000
0,
0"
#1780000
b10 0
b10 7
b100 <
1F
b0 H
b0 .
b0 6
1,
#1790000
0O
0?"
0H"
0P
05"
0<"
0>"
1K
0)"
0+"
1T"
1$"
0|
0F"
0c"
0J"
0P"
0`"
0m"
0I"
1D"
1R"
0#"
1}
1/"
0k"
17"
0j"
0e"
1O"
0b
1g
0t
0E"
1L
03"
1L"
1N"
b11111100 J
b11111100 A"
0&"
0v
0,"
b1010001110 N
b1010001110 n
1p
00"
1B"
1M"
1S"
1f
0s
0u
0y
0z
b11001111 !
0W
0K"
b11001111 T
1X
1q
b111011100 Y
b111011100 M
b111011100 @"
b1001110 V
b1001110 m
0a
b1001110 U
1\
b100 >
b100 *
b100 5
b100 R
b100 =
0,
1"
#1800000
b1 0
b1 7
0F
b10 H
b10 .
b10 6
b1001 <
1,
#1810000
0,
0"
#1820000
b10 0
b10 7
b110 <
1F
b0 H
b0 .
b0 6
1,
#1830000
1a
b1100 `
b1100 '
b1100 4
b1100 Q
b1100100 U
0\
b110 >
b110 *
b110 5
b110 R
b110 =
0,
1"
#1840000
0F
b1100 ;
b1100 :
b1001 <
1,
#1850000
0,
0"
#1860000
b0 0
b0 7
b1010 <
1F
b11 H
b11 .
b11 6
1,
#1870000
0O
0Y"
1H"
0<"
1|
0P
1L
1G"
1K
0T"
1p
1k"
1:"
0="
0?"
1P"
0)"
0+"
1#"
0d"
0g"
0I"
0D"
0R"
0/"
02"
0j"
0O"
0$"
0h
0}
15"
0N"
b1001110 J
b1001110 A"
1E"
0r
1v
0x
b101100110 N
b101100110 n
14"
0M"
0S"
0X"
1["
0o
1u
0w
1y
1z
b11111100 !
b1010001110 Y
b1010001110 M
b1010001110 @"
1W
1K"
b11111100 T
b10100110 V
b10100110 m
0a
b1111 `
b1111 '
b1111 4
b1111 Q
b10100110 U
1\
b1010 >
b1010 *
b1010 5
b1010 R
b1010 =
0,
1"
#1880000
b1 0
b1 7
0F
b1111 ;
b1111 :
b10 <
1,
#1890000
0,
0"
#1900000
b100 <
1F
1,
#1910000
1a
b1001010 U
0\
b100 >
b100 *
b100 5
b100 R
b100 =
0,
1"
#1920000
b11 0
b11 7
0F
b101 <
1,
#1930000
0,
0"
#1940000
b0 0
b0 7
b1101 <
1F
1,
